总共10个数据，参数是：当前页码=1，每页数据数=7。注意当前页码可以是0，从0开始。

{
  "content": [
    {
      "id": 8,
      "articleTitle": "Mrs.",
      "authorId": 588,
      "categoryId": 311,
      "articleContent": "Navicat Cloud provides a cloud service for synchronizing connections, queries, model files and virtual group information from Navicat, other Navicat family members, different machines and different platforms. All journeys have secret destinations of which the traveler is unaware. Secure Sockets Layer(SSL) is a protocol for transmitting private documents via the Internet. You can select any connections, objects or projects, and then select the corresponding buttons on the Information Pane. If you wait, all that happens is you get older. It provides strong authentication and secure encrypted communications between two hosts, known as SSH Port Forwarding (Tunneling), over an insecure network. To connect to a database or schema, simply double-click it in the pane. Monitored servers include MySQL, MariaDB and SQL Server, and compatible with cloud databases like Amazon RDS, Amazon Aurora, Oracle Cloud, Google Cloud and Microsoft Azure. In other words, Navicat provides the ability for data in different databases and/or schemas to be kept up-to-date so that each repository contains the same information. If your Internet Service Provider (ISP) does not provide direct access to its server, Secure Tunneling Protocol (SSH) / HTTP is another solution. Import Wizard allows you to import data to tables/collections from CSV, TXT, XML, DBF and more. To get a secure connection, the first thing you need to do is to install OpenSSL Library and download Database Source. If opportunity doesn’t knock, build a door. The past has no power over the present moment. Flexible settings enable you to set up a custom key for comparison and synchronization. Secure SHell (SSH) is a program to log in into another computer over a network, execute commands on a remote server, and move files from one machine to another. Secure Sockets Layer(SSL) is a protocol for transmitting private documents via the Internet. The reason why a great man is great is that he resolves to be a great man. Flexible settings enable you to set up a custom key for comparison and synchronization. There is no way to happiness. Happiness is the way. Flexible settings enable you to set up a custom key for comparison and synchronization. In other words, Navicat provides the ability for data in different databases and/or schemas to be kept up-to-date so that each repository contains the same information. HTTP Tunneling is a method for connecting to a server that uses the same protocol (http://) and the same port (port 80) as a web server does. To successfully establish a new connection to local/remote server - no matter via SSL, SSH or HTTP, set the database login information in the General tab. Import Wizard allows you to import data to tables/collections from CSV, TXT, XML, DBF and more. It is used while your ISPs do not allow direct connections, but allows establishing HTTP connections. Optimism is the one quality more associated with success and happiness than any other. Navicat Cloud could not connect and access your databases. By which it means, it could only store your connection settings, queries, model files, and virtual group; your database passwords and data (e.g. tables, views, etc) will not be stored to Navicat Cloud. Champions keep playing until they get it right. You must be the change you wish to see in the world.",
      "articleCover": "8KNP5csJUY",
      "isTop": 784,
      "status": 408,
      "type": 501,
      "originUrl": "http://video.chowming.jp/ToolsHomeDecoration",
      "createdAt": 1084391466000,
      "updatedAt": 1276838013000,
      "viewTimes": 816,
      "articleDescription": "XvNqTt2xW8",
      "thumbsUpTimes": 497,
      "readingDuration": 858.43,
      "order": 516
    },
    {
      "id": 9,
      "articleTitle": "Ms.",
      "authorId": 97,
      "categoryId": 909,
      "articleContent": "Navicat provides powerful tools for working with queries: Query Editor for editing the query text directly, and Query Builder, Find Builder or Aggregate Builder for building queries visually. The Main Window consists of several toolbars and panes for you to work on connections, database objects and advanced tools. Navicat 15 has added support for the system-wide dark mode. To connect to a database or schema, simply double-click it in the pane. Navicat provides a wide range advanced features, such as compelling code editing capabilities, smart code-completion, SQL formatting, and more. It wasn’t raining when Noah built the ark. Import Wizard allows you to import data to tables/collections from CSV, TXT, XML, DBF and more. To clear or reload various internal caches, flush tables, or acquire locks, control-click your connection in the Navigation pane and select Flush and choose the flush option. You must have the reload privilege to use this feature. Navicat Monitor is a safe, simple and agentless remote server monitoring tool that is packed with powerful features to make your monitoring effective as possible. Navicat provides powerful tools for working with queries: Query Editor for editing the query text directly, and Query Builder, Find Builder or Aggregate Builder for building queries visually. In the Objects tab, you can use the List List, Detail Detail and ER Diagram ER Diagram buttons to change the object view. If the Show objects under schema in navigation pane option is checked at the Preferences window, all database objects are also displayed in the pane. The Synchronize to Database function will give you a full picture of all database differences. To clear or reload various internal caches, flush tables, or acquire locks, control-click your connection in the Navigation pane and select Flush and choose the flush option. You must have the reload privilege to use this feature. Anyone who has never made a mistake has never tried anything new. The Synchronize to Database function will give you a full picture of all database differences. Navicat Data Modeler is a powerful and cost-effective database design tool which helps you build high-quality conceptual, logical and physical data models. Navicat authorizes you to make connection to remote servers running on different platforms (i.e. Windows, macOS, Linux and UNIX), and supports PAM and GSSAPI authentication. SQL Editor allows you to create and edit SQL text, prepare and execute selected queries. Navicat Data Modeler is a powerful and cost-effective database design tool which helps you build high-quality conceptual, logical and physical data models. Navicat Cloud could not connect and access your databases. By which it means, it could only store your connection settings, queries, model files, and virtual group; your database passwords and data (e.g. tables, views, etc) will not be stored to Navicat Cloud. Navicat Cloud provides a cloud service for synchronizing connections, queries, model files and virtual group information from Navicat, other Navicat family members, different machines and different platforms. The On Startup feature allows you to control what tabs appear when you launch Navicat. In the middle of winter I at last discovered that there was in me an invincible summer. Secure SHell (SSH) is a program to log in into another computer over a network, execute commands on a remote server, and move files from one machine to another. Such sessions are also susceptible to session hijacking, where a malicious user takes over your session once you have authenticated. You must be the change you wish to see in the world. Champions keep playing until they get it right. After comparing data, the window shows the number of records that will be inserted, updated or deleted in the target. It is used while your ISPs do not allow direct connections, but allows establishing HTTP connections. Typically, it is employed as an encrypted version of Telnet. Navicat provides a wide range advanced features, such as compelling code editing capabilities, smart code-completion, SQL formatting, and more. To successfully establish a new connection to local/remote server - no matter via SSL or SSH, set the database login information in the General tab. Sometimes you win, sometimes you learn. A man is not old until regrets take the place of dreams. If you wait, all that happens is you get older. The On Startup feature allows you to control what tabs appear when you launch Navicat. You must be the change you wish to see in the world. To connect to a database or schema, simply double-click it in the pane. Navicat provides a wide range advanced features, such as compelling code editing capabilities, smart code-completion, SQL formatting, and more.",
      "articleCover": "qzN9Mdryxn",
      "isTop": 951,
      "status": 301,
      "type": 54,
      "originUrl": "https://drive.kyle84.com/Appliances",
      "createdAt": 1465912565000,
      "updatedAt": 1669539411000,
      "viewTimes": 677,
      "articleDescription": "CVIzpmCKGS",
      "thumbsUpTimes": 798,
      "readingDuration": 543.26,
      "order": 537
    },
    {
      "id": 10,
      "articleTitle": "Miss.",
      "authorId": 635,
      "categoryId": 839,
      "articleContent": "If your Internet Service Provider (ISP) does not provide direct access to its server, Secure Tunneling Protocol (SSH) / HTTP is another solution. If opportunity doesn’t knock, build a door. To open a query using an external editor, control-click it and select Open with External Editor. You can set the file path of an external editor in Preferences. If your Internet Service Provider (ISP) does not provide direct access to its server, Secure Tunneling Protocol (SSH) / HTTP is another solution. You must be the change you wish to see in the world. Genius is an infinite capacity for taking pains. If the plan doesn’t work, change the plan, but never the goal. Navicat Cloud could not connect and access your databases. By which it means, it could only store your connection settings, queries, model files, and virtual group; your database passwords and data (e.g. tables, views, etc) will not be stored to Navicat Cloud. Monitored servers include MySQL, MariaDB and SQL Server, and compatible with cloud databases like Amazon RDS, Amazon Aurora, Oracle Cloud, Google Cloud and Microsoft Azure. After logged in the Navicat Cloud feature, the Navigation pane will be divided into Navicat Cloud and My Connections sections. In the middle of winter I at last discovered that there was in me an invincible summer. Always keep your eyes open. Keep watching. Because whatever you see can inspire you. Genius is an infinite capacity for taking pains. You must be the change you wish to see in the world. I may not have gone where I intended to go, but I think I have ended up where I needed to be. I may not have gone where I intended to go, but I think I have ended up where I needed to be. A man is not old until regrets take the place of dreams. There is no way to happiness. Happiness is the way. It provides strong authentication and secure encrypted communications between two hosts, known as SSH Port Forwarding (Tunneling), over an insecure network. You cannot save people, you can just love them. To connect to a database or schema, simply double-click it in the pane. It is used while your ISPs do not allow direct connections, but allows establishing HTTP connections. Genius is an infinite capacity for taking pains. What you get by achieving your goals is not as important as what you become by achieving your goals. Export Wizard allows you to export data from tables, collections, views, or query results to any available formats. I may not have gone where I intended to go, but I think I have ended up where I needed to be. The reason why a great man is great is that he resolves to be a great man.",
      "articleCover": "jU0YQtdmDz",
      "isTop": 971,
      "status": 934,
      "type": 206,
      "originUrl": "https://video.choi87.biz/MusicalInstrument",
      "createdAt": 1044324177000,
      "updatedAt": 1491696611000,
      "viewTimes": 936,
      "articleDescription": "oHA4Vuqw67",
      "thumbsUpTimes": 631,
      "readingDuration": 632.49,
      "order": 633
    }
  ],
  "pageable": {
    "sort": {
      "empty": true,
      "sorted": false,
      "unsorted": true
    },
    "offset": 7,
    "pageSize": 7,
    "pageNumber": 1,
    "paged": true,
    "unpaged": false
  },
  "last": true,
  "totalPages": 2,
  "totalElements": 10,
  "number": 1,
  "size": 7,
  "first": false,
  "sort": {
    "empty": true,
    "sorted": false,
    "unsorted": true
  },
  "numberOfElements": 3,
  "empty": false
}